;;;; Exercise 1.3.  Define a procedure that takes three numbers as arguments and
;;;; returns the sum of the squares of the two larger numbers.

(define (function a b c)
  (cond ((> a b) (cond ((> b c) '(a b))
                       (else '(a c))
        (else (cond ((> a c) '(a b))
                    (else '(b c))))))))
